simulation/qsim/LatchSR.msim.vcd
$comment
	File created using the following command:
		vcd file LatchSR.msim.vcd -direction
$end
$date
	Thu Feb 26 09:08:52 2026
$end
$version
	ModelSim Version 10.5b
$end
$timescale
	1ps
$end

$scope module LatchSR_vlg_vec_tst $end
$var reg 1 ! R $end
$var reg 1 " S $end
$var wire 1 # Q $end

$scope module i1 $end
$var wire 1 $ gnd $end
$var wire 1 % vcc $end
$var wire 1 & unknown $end
$var tri1 1 ' devclrn $end
$var tri1 1 ( devpor $end
$var tri1 1 ) devoe $end
$var wire 1 * Q~output_o $end
$var wire 1 + S~input_o $end
$var wire 1 , R~input_o $end
$var wire 1 - q_reg~combout $end
$upscope $end
$upscope $end
$enddefinitions $end
#0
$dumpvars
0!
0"
x#
0$
1%
x&
1'
1(
1)
x*
0+
0,
x-
$end
#25000
1!
1,
0-
0*
0#
#50000
1"
0!
1+
0,
1-
1*
1#
#75000
1!
1,
0-
0*
0#
#100000
0"
0!
0+
0,
#125000
1!
1,
#150000
1"
0!
1+
0,
1-
1*
1#
#175000
1!
1,
0-
0*
0#
#200000
0"
0!
0+
0,
#225000
1!
1,
#250000
1"
0!
1+
0,
1-
1*
1#
#275000
1!
1,
0-
0*
0#
#300000
0"
0!
0+
0,
#325000
1!
1,
#350000
1"
0!
1+
0,
1-
1*
1#
#375000
1!
1,
0-
0*
0#
#400000
0"
0!
0+
0,
#425000
1!
1,
#450000
1"
0!
1+
0,
1-
1*
1#
#475000
1!
1,
0-
0*
0#
#500000
0"
0!
0+
0,
#525000
1!
1,
#550000
1"
0!
1+
0,
1-
1*
1#
#575000
1!
1,
0-
0*
0#
#600000
0"
0!
0+
0,
#625000
1!
1,
#650000
1"
0!
1+
0,
1-
1*
1#
#675000
1!
1,
0-
0*
0#
#700000
0"
0!
0+
0,
#725000
1!
1,
#750000
1"
0!
1+
0,
1-
1*
1#
#775000
1!
1,
0-
0*
0#
#800000
0"
0!
0+
0,
#825000
1!
1,
#850000
1"
0!
1+
0,
1-
1*
1#
#875000
1!
1,
0-
0*
0#
#900000
0"
0!
0+
0,
#925000
1!
1,
#950000
1"
0!
1+
0,
1-
1*
1#
#975000
1!
1,
0-
0*
0#
